Times	Temperature	Humidity	Air pressure	Wind speed	Wind direction	Precipitation	UV index	Light	Irradiation flux	Gamma radiation	Snowfall estimate	A01	A02	A03	A04	A05	A06	A07	A08	A09	A10	A11	A12	A14	A16	B01	B02	B03	B05	C01	C02	C03	C04	C05	C07	C08	C09	C10	D01	D02	D03	D05	D06	D07	D08	D10	D11	G01	G02	G03	G04	H01	H02	H03	J01	J02	J05	J07	L01	L02	L04	M01	M02	M03	M04	M05	N01	N02	N03	N04	N05	N06	N07	P01	P02	P03	R01	R02	R03	R05	R06	R07	S01	S02	S03	T01	V03	V07
2000-01-01	-1.8132290105333333	 	1003.5268583333334	1.8751226771333331	233.60257733333336	 	 	2476.5089966666665	 	0.10521526766666667	 	0	1	0	0	0	0	0	0	0	1	0	0	0	0	1	0	0	0	1	0	1	0	0	3	1	2	0	1	0	0	1	0	1	0	1	0	0	0	2	0	0	1	1	3	0	0	0	0	0	0	1	1	0	0	0	0	1	2	0	1	1	2	0	0	0	2	0	2	1	1	0	0	1	0	0	0	0
2000-02-01	0.24296181172413808	 	1003.055554137931	1.6655919858620691	220.52857879310346	 	 	4339.591693103448	 	0.10505138441379312	 	0	0	0	0	0	0	0	0	0	1	0	0	0	0	1	0	0	0	1	0	0	0	0	1	1	1	0	0	0	0	0	0	0	0	0	0	0	0	1	0	0	0	0	0	0	0	0	0	0	0	0	0	0	1	0	0	1	1	1	1	2	0	0	0	0	1	0	0	0	0	0	0	0	0	0	0	0
2000-03-02	1.9120037568965513	 	1002.6328737931035	1.975624215172414	218.8430121724138	 	 	5500.19424827586	 	0.07760479379310344	 	0	1	0	0	0	0	0	0	0	1	0	0	0	0	0	0	0	0	1	0	0	0	0	1	2	2	0	0	0	0	0	0	1	0	0	0	0	0	1	0	0	0	1	1	0	0	0	0	0	0	0	0	0	0	0	0	1	1	1	1	1	0	0	0	0	0	0	1	0	1	0	0	0	0	0	0	0
2000-04-01	11.808843727586211	78.6129331724138	1007.6809365517241	2.031227802068966	163.47089672413793	 	 	15685.746310344826	 	0.10401367665517242	 	0	1	0	0	0	0	0	0	0	1	0	0	0	0	1	0	0	0	1	0	1	2	0	2	2	2	0	0	0	0	0	0	0	0	0	0	0	0	1	0	0	1	0	2	0	0	0	0	0	0	2	0	0	1	0	0	1	2	0	1	1	0	0	0	0	0	0	0	0	0	0	0	0	0	0	0	0
2000-05-01	13.907630010714286	66.95723225	1010.7688228571429	2.397011793571429	223.46723446428567	 	 	23323.393765303572	 	0.10246522160714289	 	0	1	0	0	0	0	0	0	0	1	0	0	0	0	1	0	0	0	1	0	1	2	0	2	1	3	1	0	0	0	0	0	0	0	0	0	0	0	1	0	0	0	0	0	0	0	0	0	0	0	1	1	0	0	0	0	1	2	1	3	1	0	0	0	0	0	0	1	0	1	0	0	0	0	0	0	0
2000-05-31	17.48465674137931	75.84694886206896	1008.5420613793102	2.0557308941379313	217.73868379310343	 	 	25480.17413448277	293.0336019310345	0.10168373537931036	 	0	1	2	0	0	0	0	0	0	1	0	0	0	0	1	0	0	0	1	0	0	1	0	1	1	1	0	1	0	0	0	0	0	0	1	0	0	0	1	0	0	0	1	1	0	0	0	0	0	0	1	1	0	0	0	0	1	1	1	1	1	1	0	0	0	1	0	1	0	1	0	0	0	0	0	0	0
2000-06-30	19.35873438461539	93.31893180769231	1001.3935515384612	1.9845674915384612	148.70636892307692	 	 	16559.262141153842	185.26080365384612	0.10149650473076924	 	0	1	1	0	0	0	1	0	0	2	0	0	0	0	1	0	0	0	7	0	3	1	0	2	1	5	1	1	0	0	0	1	1	0	1	0	0	0	2	1	0	2	1	4	0	0	0	0	0	0	4	2	0	1	0	0	1	3	1	1	2	1	0	0	0	1	0	1	1	1	0	1	1	0	0	0	0
2000-07-30	18.943534689655174	92.58190203448277	1007.7695531034483	1.5470925020689659	223.46441206896546	 	 	19575.403862068964	208.17606500000008	0.1018235067586207	 	0	1	1	0	0	0	1	0	0	2	0	0	0	0	1	0	0	1	2	1	1	1	0	1	1	1	1	4	0	0	0	2	1	0	0	0	1	0	1	0	0	1	2	1	1	0	0	0	0	0	1	1	1	1	0	0	1	2	1	1	1	2	0	1	0	1	0	1	1	2	0	2	1	0	0	0	0
2000-08-29	13.586977482758623	89.05823186206895	1014.0108624137931	1.3353946944827584	190.70132772413797	 	 	13848.962551724138	180.5248745862069	0.10281254231034481	 	1	2	1	0	0	1	1	0	0	2	0	0	0	0	0	0	1	0	4	1	1	1	0	4	3	3	1	1	0	0	0	1	2	0	2	0	1	0	2	0	0	1	1	3	1	1	0	0	0	0	9	1	1	1	2	0	1	1	1	6	2	1	0	1	0	3	0	2	2	1	0	1	1	0	0	0	0
2000-09-28	11.816098017857142	94.27799557142858	1018.1922360714285	2.2664164125000004	166.03136389285717	 	 	6643.285884642858	73.8297758	0.10254297760714286	 	0	4	1	0	0	0	1	1	0	1	0	0	0	0	1	0	0	1	6	0	2	2	0	1	1	5	1	1	0	0	1	2	1	0	3	0	2	0	3	1	0	1	1	12	1	0	0	0	0	0	5	1	1	1	1	0	1	2	3	2	2	1	0	1	0	1	0	1	1	1	0	1	2	0	0	0	0
2000-10-28	6.951450630714286	99.81149453571427	1009.7026396428568	2.6732934514285716	152.82918257142856	 	 	1672.9550957142858	11.961485296428572	0.10370874374999998	 	1	7	1	1	0	1	1	0	1	2	1	0	0	0	1	0	0	0	10	1	4	1	0	4	5	11	1	1	0	0	2	1	5	0	1	1	1	0	3	1	0	1	1	6	1	1	1	0	0	0	12	1	1	1	1	0	3	1	1	3	1	1	1	1	0	3	0	2	3	1	0	1	1	0	0	1	0
2000-11-27	3.7069090651724146	99.36765965517242	1006.5525724137932	1.9378836896551723	200.81700982758622	 	 	847.4035379310344	4.330610713448275	0.10387684848275863	 	2	6	1	1	0	0	1	0	1	3	1	2	0	0	1	0	0	0	6	1	5	1	1	3	1	9	1	1	0	1	1	1	4	0	1	1	1	0	3	2	1	2	1	10	1	1	1	0	0	0	15	1	1	2	1	0	1	1	1	2	3	1	2	2	0	1	0	1	1	2	0	1	0	0	0	0	0
2000-12-27	-2.5758682589285717	99.67111964285714	1010.1548114285716	2.1068746524999997	185.89372482142852	 	 	1105.2126671035714	9.68303576785714	0.10390772132142857	 	1	7	1	2	0	1	1	1	1	4	0	0	0	0	1	0	1	1	10	1	5	1	1	10	5	10	1	1	0	0	0	1	3	0	3	1	1	1	3	2	1	1	1	14	3	0	0	0	0	0	12	1	0	1	1	1	2	1	1	4	4	1	0	1	0	1	0	1	1	5	0	1	1	0	0	1	0
2001-01-26	-2.933479031448276	98.50616006896551	1004.4291396551723	2.241816686896552	206.06032986206898	 	 	3487.2426655172417	33.78996269310345	0.10331640693103451	 	1	5	1	3	0	1	1	1	1	2	1	0	0	0	1	0	1	1	6	1	1	3	0	9	13	15	2	1	0	1	2	1	3	0	1	1	1	0	7	2	1	1	1	23	2	0	0	0	0	0	13	1	1	1	1	1	7	1	2	12	7	1	0	1	0	2	0	1	2	1	0	1	0	0	0	1	0
2001-02-25	-2.7696478065999997	93.40549206896553	999.5551713793105	1.524984730689655	212.1775670344828	 	 	9534.712448275863	107.66858320689654	0.10213504479310342	 	1	9	1	1	0	1	1	1	1	9	1	1	0	0	1	0	1	2	15	1	5	1	1	4	5	9	1	1	1	1	1	1	3	0	2	1	1	0	3	0	1	2	1	12	1	1	0	0	0	0	8	2	2	1	1	1	2	3	1	5	8	1	1	1	0	3	0	2	2	1	0	1	2	0	0	1	0
2001-03-27	6.310168703793103	86.58180255172411	1005.4004327586209	1.9764087724137929	178.2666646551724	 	 	14270.73235862069	158.68828227586206	0.10109113344827589	 	1	2	1	2	0	0	1	0	1	5	2	0	1	0	1	1	1	2	13	1	4	1	1	8	8	16	1	2	1	1	1	2	1	0	1	1	1	1	8	1	2	1	1	20	1	1	0	0	0	0	8	2	1	1	1	1	1	2	1	9	6	2	1	1	0	2	0	2	2	2	0	2	1	0	0	1	0
2001-04-26	13.038554737931035	76.2430414137931	1006.1935455172413	2.280363862068966	216.37619737931033	 	 	21819.10863793103	246.50961768965516	0.1015420490689655	 	1	3	1	1	0	0	2	1	1	5	1	0	1	0	1	0	1	1	13	1	6	1	1	5	6	13	2	1	1	0	0	1	4	1	1	0	1	1	4	2	1	2	1	11	1	1	1	0	0	0	9	3	1	1	1	0	3	3	1	8	4	1	1	2	0	2	0	2	2	2	0	1	1	0	0	2	0
2001-05-26	13.984759274074074	79.46398081481482	1001.3507007407409	1.8360533014814815	212.72199596296292	 	 	21138.91924814815	228.4393387407407	0.10204072196296296	 	1	6	1	1	1	1	1	1	1	12	2	0	0	1	1	1	1	2	23	1	8	1	0	12	13	23	2	1	0	1	1	2	1	0	2	0	1	1	6	1	1	4	1	20	1	1	1	0	0	0	19	1	1	1	1	0	1	1	5	16	6	2	1	1	0	1	0	4	4	3	0	2	1	1	0	2	0
2001-06-25	22.252841833333335	73.44272329166667	1007.3547020833333	1.6073585208333332	183.7740925833333	 	 	29621.64691666667	325.4017691666666	0.10024800904166668	 	1	7	1	1	0	0	1	1	1	7	2	0	0	0	1	1	0	0	15	1	8	1	0	8	12	15	3	4	1	0	0	1	2	0	1	0	3	1	5	2	2	1	1	11	1	0	0	0	0	0	18	1	1	1	1	0	3	2	1	9	7	1	1	1	0	3	0	4	2	4	0	1	1	0	0	0	0
2001-09-01	11.99304379310345	56.740681586206904	1002.2721737931032	2.0878389208620693	 	 	 	11133.822120689654	164.31686137931038	 	 	1	6	1	2	0	1	1	1	1	9	2	1	0	0	2	0	1	1	40	3	5	1	0	15	17	21	3	3	0	0	1	1	2	0	1	0	2	1	15	1	1	1	1	18	2	0	2	0	0	0	22	3	2	2	3	1	3	1	1	21	1	6	1	1	0	3	0	2	1	3	0	1	1	1	0	2	0
2001-10-01	8.259662881724138	52.84337003448276	1003.8282955172411	1.8184267341379314	209.2888551724138	 	 	4313.16331724138	46.328551724137924	0.1005732681034483	 	1	8	1	1	0	1	2	1	1	7	1	1	1	0	1	0	1	1	21	2	8	1	0	6	24	24	1	1	0	0	1	1	2	0	1	0	3	1	7	1	1	2	1	26	1	1	2	0	0	0	17	1	2	1	1	0	4	2	1	12	2	4	1	2	1	3	1	2	2	3	1	1	0	1	0	0	0
2001-10-31	0.3486591246206893	32.74976213793103	994.1086020689655	2.578005522068965	189.72285810344832	 	 	1596.0111251724136	19.348987620689655	0.10402489948275863	 	1	7	1	1	1	1	2	1	1	5	2	1	0	0	1	1	1	1	24	1	7	2	1	16	14	25	1	3	0	0	2	1	1	1	1	0	1	1	6	1	1	1	1	19	1	1	2	0	0	0	19	2	1	1	3	2	5	2	2	21	6	3	0	1	0	2	0	2	1	2	1	2	1	2	0	0	0
2001-11-30	-7.79040917	33.00904582758621	1008.6478862068965	2.1172994289655174	175.4346722758621	 	 	1122.9352251379307	16.367435889655173	0.10401892724137932	 	1	4	2	1	0	1	1	1	2	10	1	0	0	0	1	0	1	1	25	3	8	2	1	15	26	27	1	2	0	0	1	2	2	1	1	0	1	1	7	1	0	2	1	38	1	1	0	0	1	0	32	1	1	2	1	0	3	3	2	19	7	8	1	1	0	2	0	5	6	5	0	1	1	0	0	0	0
2001-12-30	-3.0143353210357136	 	1002.3521682142857	2.4560143101785714	201.7935773571428	 	 	982.3439521428572	14.532042257142857	0.10293054867857145	 	1	4	3	1	0	2	1	1	1	5	1	1	1	0	2	0	2	3	2	1	3	1	0	2	1	4	3	1	0	0	1	2	3	0	2	0	1	1	2	2	3	1	1	9	1	2	1	0	0	1	2	1	1	1	4	1	3	2	1	2	3	1	1	2	0	1	0	1	4	3	0	1	0	1	0	0	0
2002-01-29	-0.9874878831034481	78.77260255172415	992.3883358620689	2.684818194827586	203.61971068965516	 	 	 	78.13053117241378	0.10157543655172413	 	1	10	2	1	0	2	1	1	3	5	2	0	0	0	1	0	1	3	23	2	7	2	1	12	14	30	2	3	0	1	1	4	2	1	1	0	2	1	7	2	0	3	1	12	1	1	1	0	0	0	25	1	1	2	1	1	2	4	3	16	7	3	1	1	1	2	0	3	5	1	0	1	0	0	0	0	0
2002-02-28	0.5734673720689657	68.2580283448276	999.6911127586206	2.5208091627586207	196.48077631034485	 	 	4604.26064137931	 	0.09875298662068964	 	3	8	2	1	0	1	1	1	4	7	2	0	1	0	2	0	1	1	16	1	5	1	1	13	17	17	2	3	0	0	1	2	4	0	1	0	1	1	11	1	0	4	2	34	1	1	1	0	0	0	16	1	1	1	1	0	5	2	3	24	11	2	1	3	0	2	0	2	2	4	0	2	0	1	0	0	0
2002-03-30	5.823000423793104	49.27648062068966	1012.3297486206894	2.071217318965517	156.0397893448276	 	 	18346.519682758615	 	0.09921544406896553	 	1	12	4	1	0	1	1	1	1	8	1	0	1	0	5	0	1	1	21	1	9	1	1	11	21	20	2	2	0	0	1	2	3	1	1	0	1	1	4	2	1	2	1	20	2	2	1	0	0	0	21	1	1	2	2	0	5	2	2	21	11	1	1	1	0	3	0	5	2	2	0	1	1	1	0	0	0
2002-04-29	12.615820155172415	51.372974482758615	1008.2423131034484	2.606185091724138	169.97650175862074	 	 	27892.214172413795	 	0.09793846027586206	 	1	11	3	3	0	1	1	1	1	7	2	0	0	0	2	0	1	1	22	1	7	1	2	11	17	20	6	2	0	0	2	2	4	1	2	0	2	1	15	1	1	2	1	17	1	1	1	0	1	1	18	1	1	1	5	0	1	1	1	10	9	1	1	1	0	3	0	4	1	5	0	1	0	1	0	0	0
2002-05-29	15.935676551724136	63.474026034482755	1005.3056344827586	2.0951750517241376	190.8129047241379	 	 	27092.762827586204	145.74196993793103	0.09675956579310342	 	2	8	5	1	0	1	1	1	2	5	2	0	1	0	1	0	1	1	14	1	9	2	2	12	31	31	1	4	0	0	1	3	3	1	1	1	1	1	9	1	1	3	1	16	1	1	1	0	0	1	23	1	2	3	4	1	4	1	1	9	6	1	1	2	0	1	0	3	2	3	0	2	0	2	0	0	0
2002-06-28	18.159083068965515	69.74213651724139	1004.161651724138	1.7808266396551728	182.79621203448275	 	 	25117.10003448275	229.79381586206893	0.09865893693103446	 	1	1	4	1	0	0	1	1	1	8	1	0	0	0	1	0	1	1	2	1	9	1	1	11	1	1	2	1	1	1	1	1	2	1	1	0	1	1	1	2	1	1	1	8	1	1	1	0	0	1	2	1	4	2	1	0	1	3	2	11	1	5	1	2	0	1	0	2	1	4	0	3	1	1	0	0	0
2002-07-28	18.6859068275862	63.29666851724139	1005.401858965517	1.4973898862068964	152.43736406896554	0.0011973179655172413	 	25390.297689655174	298.6368537931034	0.09677944924137928	0.0	1	5	3	1	0	2	1	1	2	2	1	0	1	0	2	0	1	1	37	1	14	1	2	13	25	28	3	3	0	0	1	2	4	1	1	0	1	1	14	3	1	1	1	14	1	1	0	0	0	0	30	1	1	2	1	0	3	2	1	25	11	5	0	2	0	1	0	4	1	3	0	1	0	0	0	1	0
2002-08-27	13.022675800000002	72.09437220689657	719.1138579310344	1.8859994706896548	212.9707701724138	0.0017480844420689654	 	15057.510013793104	174.5118584482759	0.09895163431034483	0.0	1	5	3	1	0	1	1	1	2	8	1	0	1	0	2	0	1	1	25	1	16	1	1	17	19	27	2	5	0	0	1	2	1	0	2	0	2	1	6	2	1	1	1	15	2	1	1	0	1	1	20	1	1	2	2	0	3	3	1	15	8	3	1	1	0	1	0	4	1	2	0	2	1	1	0	1	0
2002-09-26	1.5567054085689656	80.93114579310347	 	2.1842432882758622	178.4253736896552	0.00214404826137931	 	2773.6771968965513	82.25730358620689	0.10060835341379311	0.020806603482758618	1	12	1	1	0	2	1	1	2	13	1	0	1	0	2	0	1	3	32	2	19	4	1	35	32	34	8	2	0	0	1	2	1	1	1	1	2	3	19	2	1	2	2	8	1	1	1	0	0	0	21	1	4	1	3	0	6	6	1	15	5	1	1	1	0	4	0	5	3	1	0	1	0	0	0	2	0
2002-10-26	-0.539538271724138	78.89674106896551	 	2.120323004137931	175.75743079310348	0.0060043762393103455	 	2325.2179810344833	23.887037196551727	0.10049403068965516	0.027476600913793104	2	7	1	1	0	1	2	1	1	9	3	0	0	0	1	0	1	1	15	1	6	1	1	13	9	12	1	2	1	0	1	4	3	1	1	0	1	1	10	1	0	2	1	21	3	1	1	0	0	2	17	1	2	2	1	0	2	1	3	16	7	2	0	1	0	3	0	2	1	2	0	1	0	0	0	1	0
2002-11-25	-7.162229106107142	82.34218135714285	 	2.8281481274999996	173.75618060714282	0.0007691961271428571	 	1515.922752857143	18.721204796428573	0.09989468810714285	0.0044061842499999995	1	10	3	0	0	0	3	1	2	4	2	0	0	0	2	0	0	1	35	1	9	1	1	22	21	28	3	6	1	0	1	2	2	1	1	0	2	2	6	2	1	1	1	17	1	1	1	0	0	1	17	1	1	1	1	1	3	3	2	14	6	5	1	1	0	1	1	4	1	2	0	3	0	1	0	0	0
2002-12-25	-9.115127372857144	81.40541989285713	 	2.798289568928571	189.7241487857143	0.0018700051985714283	 	1709.4002878571428	13.857783142857143	0.10047932471428571	0.03661139335714286	1	7	3	1	0	1	1	1	2	11	2	0	1	0	1	0	0	1	26	1	8	2	0	17	22	26	4	4	0	0	1	5	2	1	1	0	2	2	14	2	2	3	1	37	1	1	0	0	0	1	13	1	3	1	6	1	7	4	1	22	7	3	1	1	0	2	2	3	3	2	0	2	0	1	0	0	0
2003-01-24	-5.09596469724138	84.1294163448276	 	2.419228981034483	190.5952784137931	0.001101532688275862	 	4042.733087586207	2.5297222241379314	0.09920210496551723	0.01018917675862069	1	7	2	0	0	1	1	1	4	12	2	0	1	0	1	0	1	1	36	1	14	2	1	16	15	22	4	2	0	0	0	4	5	1	1	0	1	1	13	1	1	3	1	25	1	1	0	0	0	0	22	1	1	1	5	0	7	8	1	22	12	1	1	1	0	3	0	2	2	5	0	1	0	1	0	0	0
2003-02-23	-2.0020047320689653	74.22567172413792	 	2.285167463793104	188.5370006896552	0.0007662834903448277	 	9528.108893103448	54.018327555172405	0.09858059406896552	0.0005268198965517241	1	11	3	1	0	1	2	0	1	8	1	0	0	0	1	0	0	1	27	3	4	1	1	20	16	23	5	1	0	0	1	1	7	1	2	1	2	1	18	4	1	1	1	37	1	1	2	0	0	0	14	1	1	1	2	0	1	1	4	18	6	5	1	1	0	4	0	2	1	1	0	1	1	1	0	0	0
2003-03-25	3.7341800831034484	65.19681537931034	 	2.785962262068966	163.57232151724136	0.002370689717241379	 	15268.75835172414	180.78786706896548	0.10034224313793104	0.00025143675862068966	3	8	5	1	1	1	1	1	1	8	1	0	0	0	2	0	0	1	23	1	10	3	1	16	7	14	1	3	0	0	2	1	1	0	1	0	3	1	6	1	1	2	1	18	1	1	2	0	0	0	11	1	1	1	3	1	2	4	3	21	4	5	0	2	0	4	1	1	2	4	0	1	1	1	0	0	0
2003-04-24	9.710453980689657	66.68638475862069	1006.301882413793	1.9969109479310347	185.35856979310344	0.010201149936551723	 	20005.182	231.49520979310344	0.10047209682758623	0.0	1	8	2	1	0	1	1	1	2	4	1	0	0	0	1	0	0	1	7	2	6	3	1	15	9	16	2	2	0	0	2	1	7	0	2	0	1	1	3	1	1	1	1	24	1	1	3	0	0	0	12	1	2	1	2	1	5	3	1	15	11	1	1	1	0	1	0	3	1	1	0	1	1	0	0	0	0
2003-05-24	13.705735344827588	71.03221503448276	1004.9335958620688	1.6549830048275864	218.22084931034482	0.006802100635172413	 	22817.584172413794	258.16618637931026	0.09946791562068967	0.0	1	17	1	1	0	1	1	0	1	5	1	0	0	0	1	0	0	1	18	2	13	2	0	20	16	16	5	5	0	0	2	1	3	0	2	0	2	1	10	1	1	1	2	23	1	1	3	0	0	0	26	1	3	1	3	0	5	1	3	20	7	1	1	1	0	2	0	1	2	8	0	4	1	0	0	0	0
2003-06-23	17.923312551724134	70.22533727586206	1003.5143586206894	1.287380285172414	178.73394068965513	0.007159962646896551	 	20726.096762413796	275.4701884482759	0.09837882572413793	0.0	2	16	4	0	0	1	1	1	1	2	1	1	1	0	1	0	0	1	17	1	4	2	0	9	1	15	1	1	1	0	1	2	3	0	1	0	1	1	1	2	1	1	1	21	1	0	1	0	0	0	16	0	1	1	1	0	6	5	1	21	7	1	0	1	1	4	1	1	1	6	0	1	0	0	0	0	0
2003-07-23	18.975035103448274	78.28869248275862	1006.740131724138	1.5040708731034484	192.4563103448276	0.00718390763862069	 	14989.041834827589	16.562360313793103	0.09705783137931034	0.0	0	5	4	0	0	1	1	1	1	4	1	0	1	0	1	0	1	2	13	1	6	2	1	9	10	13	1	1	0	0	1	3	2	1	2	0	3	2	6	3	0	1	1	5	1	8	2	0	0	0	14	1	1	1	3	1	1	2	3	17	8	6	2	1	0	1	0	5	2	1	0	1	1	1	0	0	0
2003-08-22	12.9145421	83.14913206896551	1004.5854120689655	1.4000616468965517	213.16125368965518	0.006136358224827585	 	13966.59547586207	1.0003315655172413	0.10355784017241378	0.0	1	7	5	1	0	1	1	0	2	2	1	0	0	0	2	0	1	3	23	3	4	2	1	10	6	17	2	2	0	0	1	2	3	1	1	0	1	1	10	2	1	1	1	17	1	1	1	0	0	0	1	1	1	1	3	1	2	1	1	20	10	4	1	1	0	2	1	2	1	2	0	1	2	0	0	0	0
2003-09-21	8.76035601724138	83.89188658620692	1003.1638055172411	1.5453186033448276	198.3945582758621	0.003017241268965517	 	7142.183755172414	75.2739167586207	0.101717667	0.0	1	13	6	1	0	1	1	1	1	4	1	0	0	0	3	0	3	1	14	1	13	1	3	26	12	20	2	1	0	0	2	5	1	1	2	0	2	0	10	1	1	1	1	44	1	1	1	0	0	1	19	1	2	1	8	2	2	2	3	27	10	2	0	1	0	1	0	6	1	1	0	2	1	0	0	0	0
2003-10-21	2.2259396358620682	74.85485993103448	1010.0385855172414	1.410025812965517	190.90422193103453	0.0027298845096551724	 	2846.8669275862067	32.087079441379316	0.10081442996551723	0.004501915620689655	0	10	6	1	0	2	1	1	1	2	2	0	0	0	1	0	3	1	20	1	5	4	1	20	9	24	1	4	0	0	1	1	3	1	3	0	1	1	9	1	1	1	0	25	1	0	1	0	0	1	15	1	1	3	4	1	1	1	2	24	10	5	1	1	1	1	0	2	4	3	0	3	2	0	0	0	0
2003-11-20	0.9801964020689655	 	1003.0205489655173	2.552310953793103	187.1024682758621	0.0040708812765517235	 	1389.678522413793	12.11027290689655	0.10240768117241379	0.012895113793103449	1	9	7	1	0	1	0	1	1	3	1	0	0	0	1	0	1	2	21	1	7	1	0	17	10	17	1	3	0	0	1	1	1	1	1	0	1	1	7	2	1	1	2	38	1	1	1	0	0	0	16	0	1	1	5	1	1	6	1	28	8	4	2	5	0	2	1	3	2	1	0	2	3	0	0	0	0
2003-12-20	-3.5070315549999997	92.1090612142857	1001.6350489285712	2.183779738928571	156.7754502142857	0.001512896954285714	 	1437.9415917857145	15.300223160714285	0.10418526971428572	0.004315476125	1	8	1	1	0	1	2	1	1	8	1	0	1	0	3	0	0	1	16	1	4	1	0	12	26	20	4	1	0	0	1	2	2	1	1	0	2	1	12	1	1	1	1	40	1	1	1	0	0	1	16	0	2	1	4	1	3	7	2	28	8	4	1	1	1	5	0	4	2	2	0	1	0	0	0	0	0
2004-01-19	-4.926587216068966	89.80325955172415	1002.1257013793107	2.007531294137931	189.47217917241377	0.001676245056551724	 	3164.3544275862064	35.448425948275855	0.10325674131034485	0.004489942310344828	1	12	3	0	0	1	1	1	1	6	1	0	0	0	1	0	1	2	28	3	12	2	0	20	9	15	1	2	0	0	1	2	2	1	2	0	2	1	13	1	0	1	1	30	1	1	0	0	0	0	17	1	1	3	3	1	2	8	1	24	10	2	1	3	0	3	1	6	6	1	0	2	1	0	0	0	0
2004-02-18	-1.982902431034484	80.84329944827584	1011.5679048275865	1.7793821917241375	153.58828606896552	0.0008381226917241379	 	8304.525510344827	92.1962413448276	0.10254358620689655	0.002622126448275862	1	11	3	1	0	1	2	1	3	11	3	0	1	0	1	0	1	1	27	2	8	1	0	19	17	20	2	3	0	0	1	1	1	0	2	0	2	1	6	2	1	2	1	29	1	5	2	1	0	1	20	4	2	1	1	2	1	2	1	23	5	4	1	2	0	4	1	3	1	1	0	2	1	0	1	0	0
2004-03-19	3.8922825279310342	63.128854896551715	1005.2313241379309	1.7516737648275857	143.83981120689657	0.001700191828275862	 	13443.430448275862	168.58930017241374	0.10125367931034482	0.0	0	12	2	0	0	1	1	1	2	11	1	0	1	0	3	0	0	0	22	1	7	1	1	1	15	26	1	1	0	0	1	1	3	0	2	0	1	0	4	2	0	1	1	27	1	1	4	0	0	1	18	1	1	2	8	0	5	4	2	26	5	1	1	2	0	2	1	3	1	1	0	2	1	0	0	0	0
2004-04-18	10.693332113793106	57.33063486206896	1006.8906062068965	2.050191583448276	143.43637720689657	0.0013170498503448274	 	21173.128093103445	260.5129329310345	0.09828784093103449	0.0	1	11	1	1	0	1	3	1	1	6	1	0	1	0	3	0	0	1	36	1	13	4	0	15	14	28	4	4	0	0	2	3	3	0	1	0	1	1	5	3	0	1	1	35	1	1	8	0	1	1	23	3	2	1	7	1	8	4	1	29	7	5	1	2	0	3	2	4	7	2	0	2	1	0	0	0	0
2004-05-18	12.001197468965522	68.66064731034483	1004.3418924137933	1.4659961941379314	187.27914731034485	0.00706417887448276	 	22940.7811724138	267.0829737931034	0.09871383172413793	0.0	3	7	2	1	0	1	2	1	3	2	1	0	0	0	1	0	1	1	34	2	4	1	3	6	9	13	4	2	0	0	1	1	2	1	2	0	2	1	9	1	1	2	1	18	1	1	1	0	0	1	16	2	2	2	2	1	4	6	1	17	6	1	1	2	0	1	2	4	3	5	0	3	2	0	0	0	0
2004-06-17	15.261721862068965	77.78074441379312	1001.3081437931035	1.620366492413793	195.47623120689647	0.007758621609655173	 	13121.42970103448	250.05943593103444	0.09959949499999998	0.0	1	9	1	1	2	1	1	1	1	9	1	0	0	0	3	0	0	2	20	2	9	1	1	15	13	12	4	3	0	0	1	3	1	1	1	1	3	1	10	1	1	1	1	25	1	1	9	0	0	1	22	1	1	3	2	1	4	4	1	22	10	5	1	1	0	3	1	2	1	7	0	1	3	0	0	0	0
2004-07-17	19.03443603448276	78.68976779310346	1008.4433127586207	1.3327826931034483	173.44882358620688	0.00543582316275862	 	4163.241381724138	259.48922296551723	0.09753100062068966	0.0	1	14	1	0	0	1	1	1	2	2	1	0	1	0	3	0	0	1	16	2	8	1	1	14	9	14	2	1	0	0	1	2	3	1	1	0	1	2	11	1	1	1	1	26	1	1	4	0	0	2	20	1	1	2	3	1	1	2	2	12	9	2	0	1	0	3	2	5	1	1	0	3	1	0	0	0	0
2004-08-16	15.228197499999998	76.0285048275862	1006.5345627586208	1.41249997107931	183.8911420689655	0.009171455712413793	 	14003.921672413791	150.90265803448276	0.09931799593103449	0.0	1	7	3	0	0	2	1	1	1	3	1	0	0	0	1	0	1	1	21	1	10	1	1	10	10	15	4	1	0	1	1	1	6	1	1	1	1	1	9	3	1	1	1	10	2	1	1	0	0	1	23	1	1	3	3	1	3	1	1	14	8	4	0	1	0	1	2	1	1	1	0	1	1	0	0	0	0
2004-09-15	9.822886372413791	84.01636268965518	1005.2408655172413	1.720793460137931	177.90892999999997	0.005316091544827585	 	8384.153162068968	89.43572906896554	0.10185013262068966	0.0	1	9	2	1	1	1	1	1	1	4	1	0	0	0	3	0	1	1	12	1	9	2	3	19	8	11	3	2	0	0	3	1	1	1	1	1	3	1	6	1	1	1	1	12	1	1	2	2	0	0	12	1	1	3	1	0	8	1	2	21	4	2	0	2	0	2	1	1	1	2	0	1	1	0	1	0	0
2004-10-15	5.45614266275862	72.3720652413793	1005.6925168965515	1.7912735710344827	171.13795310344833	0.0036668172193103444	 	3290.7984172413794	33.884985482758616	0.10349695934482758	0.0	1	13	4	1	1	1	1	1	1	9	1	0	0	0	2	0	0	1	18	2	4	1	0	19	16	12	1	4	0	0	1	1	2	1	4	1	1	1	5	1	1	1	1	28	1	2	1	1	0	1	18	1	3	3	2	1	6	1	1	19	16	1	1	1	0	1	1	1	2	2	0	1	2	0	0	0	0
2004-11-14	-0.9532119431034484	77.34815293103448	1001.2180013793102	2.0385906924137926	196.7957776896552	0.00203569278	 	1783.9166996551724	17.935157	0.10439157927586207	0.0073309893103448275	2	14	5	2	0	0	1	1	1	4	1	0	1	1	1	0	2	1	11	2	5	1	1	18	14	18	6	4	0	1	1	1	1	1	2	1	2	1	8	2	1	2	1	32	2	1	1	1	0	1	16	0	1	2	1	0	10	3	1	19	14	3	1	1	0	3	1	3	1	2	0	1	1	0	1	0	0
2004-12-14	0.9582960443571428	85.8009614642857	995.0663357142857	2.55293895	162.47638428571426	0.0045138882764285725	 	1292.155382857143	9.682908210714285	0.10468800935714283	0.002690972214285714	1	11	2	2	0	1	1	1	1	13	1	0	1	0	4	0	1	1	16	1	3	1	1	12	16	11	2	3	0	0	2	1	3	0	1	1	1	1	4	2	1	1	1	28	1	1	1	1	0	0	9	0	3	1	2	0	5	1	3	16	7	2	0	2	0	2	1	1	1	1	0	1	1	0	0	0	0
2005-01-13	-4.171061326275861	87.32997310344827	1008.9017320689658	2.160763873103448	136.1652618275862	0.0009818008799999999	 	2965.0699448275864	34.73659017241379	0.10331981355172415	0.007507183586206896	1	17	2	1	0	1	1	1	1	6	1	0	1	0	1	0	2	1	16	1	5	1	1	11	12	10	7	3	0	0	1	2	5	1	1	1	2	1	6	1	1	2	2	26	3	1	1	1	0	1	12	0	2	3	1	1	3	4	3	17	9	1	2	1	0	1	2	6	3	1	0	2	1	0	0	0	0
2005-02-12	-7.536136955172415	82.21949348275862	1004.6947258620688	2.5060558372413797	153.88236627586204	0.0	 	8894.758789655172	104.35601875862069	0.099186365	0.0	1	13	1	0	0	1	1	1	1	9	1	0	0	0	1	0	1	1	12	1	5	1	1	12	16	12	2	2	0	0	1	2	4	0	1	1	1	2	7	2	0	2	2	46	2	2	3	3	0	0	18	1	1	1	3	0	7	3	2	16	13	2	1	3	0	2	3	6	1	1	0	1	1	0	0	0	0
2005-03-14	0.8552198389655168	72.8835535172414	1008.0356024137932	2.0774055882758624	209.81600517241378	0.00227490422	 	13959.240713793106	159.27935979310348	0.09625834644827586	0.0002993295172413793	1	14	4	2	0	0	1	3	1	7	1	0	0	0	2	0	1	1	18	2	8	1	0	12	11	11	2	1	0	0	1	1	5	1	1	1	1	1	6	4	1	2	1	26	2	1	2	2	0	0	19	0	1	2	3	1	3	1	1	22	5	3	1	1	0	1	4	4	4	4	0	1	3	0	0	0	0
2005-04-13	6.540972483793101	71.66611765517241	1004.1302231034484	1.8210130086206897	175.62139268965518	0.0018438696696551722	 	17129.329489655178	195.2046215517242	0.09823095031034482	0.00023946360344827587	1	4	3	1	0	1	1	1	1	3	1	0	1	0	3	0	2	1	14	1	10	4	1	7	13	9	2	3	0	0	3	1	5	0	4	1	1	1	4	1	0	1	1	16	1	1	2	1	0	1	8	0	1	1	4	1	3	3	1	11	10	1	0	2	0	1	1	2	2	5	0	1	1	0	0	0	0
2005-05-13	13.505865948275863	70.19448041379312	1007.1009706896549	1.7527179131034483	179.21688465517246	0.010464558695172413	 	24018.30744827586	89.46454099999998	0.09976950006896552	0.0	1	10	3	1	1	1	1	1	1	3	2	0	0	0	2	0	1	1	1	1	4	2	0	16	9	15	3	4	0	0	1	1	5	0	1	2	2	2	7	1	1	1	1	24	1	1	3	1	0	0	8	0	1	2	2	0	7	3	1	1	1	2	0	2	0	5	3	1	1	4	0	2	1	0	0	0	0
2005-06-12	17.132819793103444	69.60869913793103	1005.837178275862	1.23479409137931	201.32984741379306	0.003376436790344828	 	28740.672000000006	16.64813048965517	0.09929812124137931	0.0	1	10	1	2	1	1	1	1	1	3	1	0	0	0	1	0	1	1	21	1	8	2	1	14	13	13	4	2	0	0	0	1	4	1	1	2	4	1	6	1	0	1	3	12	2	1	5	1	0	1	20	0	1	1	2	1	5	2	1	17	9	1	1	1	0	4	1	4	1	4	0	2	1	0	0	0	0
2005-07-12	19.004439379310345	77.1771591724138	1002.0413679310345	1.145280796068966	160.75366972413792	0.010705189471034481	 	7897.322667931035	112.70258712068969	0.09804264344827586	0.0	1	5	2	2	0	1	1	1	1	3	1	0	1	1	1	0	1	0	19	3	9	2	1	11	4	18	4	2	0	1	1	1	3	3	1	1	1	1	7	3	0	1	1	6	1	2	2	1	0	1	8	1	1	4	2	0	2	3	1	9	8	2	1	1	0	2	1	7	1	1	0	1	1	0	0	0	0
2005-08-11	16.07769253448276	81.11856224137931	1008.7899337931035	1.4222102068965519	180.31711044827588	0.0023946361337931032	 	1969.5293382758618	115.86480823103447	0.10029465086206897	0.0	1	4	3	2	0	1	2	1	2	6	1	0	0	1	1	0	2	1	12	2	7	1	0	4	7	16	2	1	0	0	1	1	1	0	3	1	2	1	1	3	1	2	1	9	2	1	1	2	0	1	11	1	1	1	2	0	2	1	1	8	5	3	0	1	0	1	1	5	2	3	0	3	1	0	0	0	0
2005-09-10	12.511229465517241	81.74948258620691	1012.5491458620687	1.1192768882758624	166.32437141379307	0.004956895566896552	 	945.0511155172414	291.0292358758621	0.10181860700000002	0.0	1	5	2	3	0	1	1	1	1	1	1	0	0	0	2	0	1	0	1	1	4	1	1	13	11	9	4	3	0	0	1	2	3	1	4	1	1	1	10	2	1	1	3	2	1	1	1	1	0	0	15	1	1	1	2	0	10	5	1	19	8	4	1	2	0	3	1	5	2	1	0	1	1	0	0	0	0
2005-10-10	6.0615920610344824	79.8756264827586	1013.0782924137931	1.6565722524137927	164.3809079310345	0.0036637934144827587	 	4971.259002413792	73.55397389655172	0.10277476655172414	0.0	1	8	1	2	0	1	1	1	2	5	2	0	0	0	2	0	1	0	19	2	13	1	2	13	16	20	2	3	0	0	1	2	3	1	1	1	1	1	7	1	0	2	1	10	1	1	1	1	0	1	13	1	1	1	1	1	2	3	1	18	6	3	1	1	0	4	1	2	1	1	0	1	1	0	0	0	0
2005-11-09	1.184614232413793	88.52654865517242	1005.0977027586208	2.304873034827586	131.37097075862067	0.0011254787813793103	 	1577.1868875862071	15.137571682758619	0.10508849427586207	0.00023946360344827587	4	10	4	2	0	2	1	1	1	8	1	0	0	0	1	0	1	1	24	1	10	2	1	23	12	18	2	2	0	0	1	2	4	0	3	1	3	1	5	1	0	1	1	23	1	2	1	2	0	0	13	1	1	1	3	0	8	1	2	20	4	3	0	1	0	1	1	2	1	1	0	2	1	0	0	0	0
2005-12-09	-3.240512906214285	73.92728921428571	1007.5489885714286	1.6269096365857147	142.30712067857144	0.002256944724285714	 	1453.6681382142856	12.941344021428574	0.10563231982142855	0.010367063660714285	2	17	5	1	0	1	1	1	1	4	1	0	1	0	3	0	1	0	22	1	9	4	1	25	19	29	3	3	1	0	1	4	1	1	2	1	1	1	6	2	1	2	1	33	2	1	1	2	0	0	21	1	1	1	4	0	8	1	3	23	8	6	1	1	0	4	1	1	2	2	0	1	1	0	0	0	0
2006-01-08	-7.898898644482758	 	1015.9764406896549	1.887940869448276	115.85448444827585	0.0004549808682758621	 	2688.2592310344835	29.893558558620686	0.10555855113793103	0.0052203062241379305	2	13	4	1	2	0	1	1	1	4	1	0	0	0	2	0	1	1	19	1	6	2	0	26	16	19	3	2	0	0	1	2	7	0	1	1	1	1	9	2	1	2	1	36	4	2	1	1	0	0	26	0	1	2	1	0	3	1	1	19	8	3	1	1	0	1	1	6	2	5	0	3	1	0	0	0	0
2006-02-07	-7.165648262068964	88.79527231034484	1004.9282379310346	1.8253473320689653	111.05788182758621	0.0007423372013793102	 	6504.972086206896	72.86278731034483	0.10170953537931035	0.009818007413793104	1	8	2	2	0	1	1	1	2	3	1	0	0	0	6	0	1	0	25	1	2	1	1	6	8	13	1	1	0	0	1	5	2	0	1	1	1	1	4	1	0	1	1	15	2	2	1	2	0	0	9	1	1	2	3	0	5	1	1	15	10	2	1	1	0	5	2	3	1	3	0	2	1	0	0	0	0
2006-03-09	-1.36779952413793	79.72485613793103	1004.3239289655172	1.8540358985172414	108.89734427586205	0.0018678157496551725	 	5672.923334137931	135.855818862069	0.09780204131034483	0.0028256704137931037	1	6	4	0	0	1	1	1	1	8	1	0	0	0	4	1	1	1	23	1	8	1	1	12	10	15	2	1	0	0	2	2	3	0	2	2	1	1	4	1	0	2	1	25	2	5	2	1	0	0	6	2	1	2	3	0	3	2	1	11	4	2	1	1	0	4	1	5	4	3	0	1	1	0	0	0	0
2006-04-08	8.732793944827586	56.21175244827587	1010.3828834482755	1.9719947672413796	95.11856668965514	0.0005747125793103449	 	27215.964580689662	230.37691651724137	0.09870390427586206	0.0	1	15	3	1	0	1	3	1	1	15	1	0	0	0	1	0	2	1	17	1	5	1	0	17	11	18	3	1	1	0	1	2	2	1	2	1	3	2	2	3	0	2	1	17	1	8	7	3	0	1	22	0	1	2	2	0	9	1	2	24	7	1	0	2	0	3	2	4	1	4	0	1	1	0	0	0	0
2006-05-08	11.56294610344828	68.19769527586206	1001.7581951724139	1.3145980800000001	135.24182620689655	0.006011218233103448	 	21758.907793103448	247.0496104827586	0.1007723697586207	0.0	1	14	1	1	0	1	1	2	1	12	1	0	0	0	1	0	2	1	35	3	9	1	1	17	17	25	6	5	0	0	0	1	3	0	1	1	2	3	4	1	0	1	1	18	1	1	7	3	0	0	18	1	1	1	4	0	4	2	1	18	5	1	1	1	0	1	1	2	3	2	0	3	1	0	0	0	0
2006-06-07	18.658430310344826	66.38320965517242	1011.7879024137932	1.6627908955172417	213.7449593103448	0.0015325669068965517	 	26302.08531275862	327.20330172413793	0.09856711951724137	0.0	1	11	2	1	0	1	1	1	1	9	1	1	0	0	2	0	1	1	20	2	8	1	2	20	10	21	6	5	0	0	1	1	5	0	1	1	1	1	4	2	0	2	2	20	2	1	7	1	0	1	25	0	1	1	1	1	9	4	1	20	6	2	0	2	0	1	1	2	2	4	0	2	1	0	1	0	0
2006-07-07	19.104184379310347	66.62506834482758	1007.4526596551722	1.9080493293103444	205.34136317241376	0.0034722216744827584	 	2742.1984162068966	341.19951827586203	0.09704833524137932	0.0	1	8	1	1	0	1	1	1	1	2	1	0	0	0	5	0	1	1	14	1	6	1	1	11	7	10	2	2	0	0	1	2	1	1	2	1	1	1	9	2	0	2	1	2	1	1	3	1	0	1	20	1	1	1	4	0	2	6	1	23	5	4	1	1	0	1	1	1	1	2	0	3	1	0	0	0	0
2006-08-06	17.652541396551726	74.2610142413793	1000.8390403448275	1.7210009213793105	150.57148610344828	0.005459769612413792	 	21770.080506896556	256.64495217931034	0.10063505313793103	0.0	1	12	4	1	0	1	1	1	1	5	1	0	0	0	2	1	2	1	21	1	6	2	2	23	15	13	5	3	0	0	1	6	3	1	3	1	2	1	8	1	0	1	1	17	1	2	1	1	0	1	12	0	1	1	1	0	8	3	1	23	10	4	0	1	0	2	1	2	1	2	0	4	1	0	0	0	0
2006-09-05	13.974330120689658	86.69045396551722	1006.4015241379308	1.5799090868965517	210.75315306896553	0.0010057472282758622	 	 	105.0374394413793	0.10226496586206896	0.0	2	13	2	1	0	1	1	1	1	3	1	0	0	0	3	0	1	1	10	1	9	1	1	14	8	19	3	1	0	0	1	4	2	1	2	1	2	1	10	1	1	1	3	15	1	1	2	1	0	1	25	1	1	2	2	1	4	2	1	16	9	2	1	1	0	1	1	3	1	1	0	1	1	0	0	0	0
2006-10-05	7.677860908965516	65.19580862068966	1002.7496213793104	2.262909474137931	196.45838993103445	0.006226052159310345	 	 	10.1006745	0.10323806244827587	0.0010416667586206896	2	8	5	1	0	1	1	3	1	9	1	0	0	0	1	0	1	1	17	2	5	1	1	7	7	8	3	5	0	0	2	3	4	1	1	1	1	1	2	2	0	3	2	12	1	1	1	1	0	2	16	0	3	1	3	1	2	6	1	24	9	2	1	1	0	1	1	1	1	3	0	2	1	0	0	0	0
2006-11-04	3.4497078113793114	56.602135482758634	1002.9548375862071	2.4083319144827584	192.10699379310347	0.001652298928965517	 	 	114.44955768965515	0.10509755048275861	0.0015086205429074276	2	9	2	2	0	1	1	1	2	11	1	0	0	0	3	0	2	1	26	1	1	1	1	19	1	21	6	3	0	0	2	2	4	1	3	1	1	1	5	1	1	1	1	30	1	1	1	1	0	1	15	1	1	2	3	1	6	3	1	14	12	1	0	2	0	5	1	2	2	1	0	1	1	0	0	0	0
2006-12-04	3.2708116178571425	81.88526535714287	1003.2827042857143	2.7532597185714285	213.28501785714283	0.002605950743571428	 	11006.010182142854	100.15473467857143	0.08231311396428571	0.0021286540714285716	2	14	2	1	1	1	2	2	1	3	1	0	1	0	1	0	2	1	16	1	7	3	2	18	13	19	3	1	0	0	1	2	6	0	1	1	1	1	8	1	0	1	1	18	1	1	1	1	0	1	17	1	2	1	3	1	6	1	1	14	2	2	1	1	0	2	1	1	1	3	0	2	3	0	0	0	1
2007-01-03	-1.9302250000000003	93.35837144827589	990.9880151724136	2.528123379310345	193.8370867586207	0.005056419755862069	 	4737.269127586208	42.61891624137931	 	0.016139850379310344	2	13	3	4	0	1	1	1	1	2	1	0	0	0	2	0	1	0	18	1	2	2	1	20	20	22	8	1	0	0	1	2	3	1	1	0	1	1	7	1	0	2	1	30	1	1	3	1	0	0	15	1	1	1	1	0	2	4	1	28	15	2	1	1	0	1	1	2	2	1	0	1	1	0	0	0	0
2007-02-02	-9.590588347448275	78.80125682758622	1015.5048751724137	2.576151075862069	165.70602979310345	0.001340996175862069	 	8224.954448275863	84.12132662068964	0.09755034475862069	0.007435344810344828	1	14	2	0	0	1	1	1	1	7	2	0	0	0	5	0	1	0	22	1	10	1	1	16	17	23	6	1	1	0	1	4	5	0	1	1	1	1	6	2	0	2	1	26	1	1	1	1	0	1	18	0	1	2	3	2	7	4	4	26	6	1	1	1	0	5	3	3	1	2	0	1	1	0	0	0	0
2007-03-04	5.110061551034483	73.1562986551724	1018.1531448275863	2.7559146310344826	180.8254486206896	0.0017001917827586207	0.19675713344827586	12492.317737931036	0.8217365517241378	0.09623166127586208	0.004166666689655173	1	15	3	0	0	1	1	1	1	6	1	0	0	0	2	0	2	1	15	1	5	1	3	18	8	21	4	2	0	0	1	3	1	0	1	1	1	1	4	2	0	1	2	28	1	3	1	1	0	1	19	1	1	2	3	1	3	3	1	17	2	1	1	1	0	10	1	3	1	2	0	2	1	0	0	0	0
2007-04-03	5.66366926551724	61.732417551724126	1013.3557906896552	3.579622793103448	234.1960075862069	0.0028176299696551724	0.5397555758137931	17089.51545517241	 	0.09652954689655173	0.0	1	8	4	1	0	1	1	2	1	7	1	0	0	0	1	0	1	0	13	1	9	1	1	17	13	16	3	2	0	0	2	3	3	1	1	1	1	1	5	3	1	2	1	12	2	1	11	3	0	1	25	1	1	1	4	0	7	2	1	19	4	3	2	1	0	4	1	1	2	4	0	1	2	0	0	0	0
2007-05-03	13.378660393103447	66.26793262068965	1010.5611531034484	2.5376952413793106	189.65269534482763	0.008333332247586206	1.4242808762068966	22478.77581724139	 	0.09625480965517241	0.0	1	13	2	0	0	1	1	2	1	5	1	0	0	0	5	0	2	0	18	1	6	2	2	17	16	13	3	2	0	0	2	2	2	0	1	1	1	1	4	1	1	1	2	15	1	1	11	1	0	1	21	1	2	1	1	0	7	3	4	24	5	3	1	1	0	4	1	2	1	4	0	1	1	0	0	0	0
2007-06-02	17.030541862068965	60.00086800000001	1012.4410148275861	2.5923683068965517	182.13418431034484	0.0031609192641379306	1.8359951999999995	27467.485413793103	 	0.09540441389655173	0.0	1	17	3	0	0	1	1	1	1	8	1	0	0	0	3	0	1	0	17	1	10	3	1	10	10	15	3	2	0	0	1	1	3	1	3	1	1	1	2	2	0	1	1	16	1	1	10	1	0	0	15	1	1	2	2	0	4	1	2	16	2	2	0	1	0	3	1	9	2	2	0	3	1	0	0	0	0
2007-07-02	17.440532034482757	72.98514710344827	1007.6601420689656	2.828837020689655	180.8022622068966	0.00790229770275862	1.5405858327586206	21353.175120689648	 	0.09557582203448277	0.0	0	3	4	0	1	0	1	2	1	4	1	0	1	0	3	1	1	1	5	1	4	1	2	5	5	7	1	2	0	0	1	2	3	0	1	1	3	4	5	1	0	1	1	12	1	1	3	1	0	1	15	1	2	2	1	0	3	2	1	11	8	3	1	1	0	1	0	4	2	2	0	1	3	0	0	0	0
2007-08-01	19.20548220689656	69.11013234482758	1015.2110037931031	2.718650275862069	169.03384172413794	0.0036159001193103446	1.351505748275862	18696.835482758615	 	0.09455080031034485	0.0	1	4	4	0	0	1	1	1	1	3	1	0	0	0	2	0	1	0	7	2	4	4	1	7	8	13	3	3	1	0	1	1	1	1	2	1	2	1	7	1	0	1	1	8	1	1	1	1	0	0	11	1	1	1	1	0	8	1	1	9	4	2	1	2	0	2	1	4	1	1	0	2	1	0	0	0	0
2007-08-31	11.355142031034482	77.34037513793103	1013.1283741379312	3.084805486206896	188.66892724137932	0.0037595785324137927	0.7153028348275863	11686.92653448276	 	0.09618613731034485	0.0	1	8	1	0	0	1	1	2	1	9	2	0	0	0	3	0	1	0	21	1	8	1	2	14	16	20	3	2	0	0	1	3	6	1	1	1	1	2	6	1	1	1	2	12	1	1	1	1	0	1	20	1	1	1	5	0	7	2	2	18	4	1	1	1	0	1	1	4	1	1	0	3	1	0	0	0	0
2007-09-30	7.335967472413793	84.86546965517242	1021.931645862069	3.121858086206897	192.30399672413793	0.007399426526206896	0.31084402793103455	14696.339255172416	 	0.09582791344827586	0.0	1	6	5	1	1	1	1	1	1	6	1	0	1	0	1	0	1	0	12	1	5	1	1	15	16	16	3	2	0	0	1	2	4	0	4	1	2	1	6	1	1	1	1	18	1	1	4	1	0	0	14	0	1	2	2	1	3	4	1	17	4	1	1	2	1	2	2	1	1	2	0	1	2	0	0	0	0
2007-10-30	0.9358233789655174	84.86851665517241	1010.5182568965514	4.273798948275862	180.4042320689655	0.002873563516551724	0.13749016444827583	3420.9036586206903	 	0.09732756413793102	0.0034602491034482754	1	14	2	1	1	1	2	1	1	2	2	0	0	0	2	0	1	1	22	2	12	1	1	17	12	25	1	2	0	0	2	3	2	0	1	1	1	1	3	1	1	2	1	12	1	1	1	1	0	0	18	0	2	1	2	2	6	3	1	19	9	2	2	1	0	4	1	1	1	1	0	3	1	0	0	0	0
2007-11-29	0.6764759699310344	87.41032499999996	1017.4767089655172	4.377034665517241	193.05998879310343	0.0011973181220689656	0.08631403972413795	2584.6517827586204	 	0.09678589196551728	0.006956417379310345	1	15	4	1	0	1	1	1	1	5	1	0	1	0	2	0	1	1	13	1	2	1	1	13	8	11	2	3	0	0	2	2	1	1	1	1	1	2	6	1	0	1	2	21	1	2	1	2	0	1	18	0	1	2	2	0	2	5	1	13	7	3	0	1	0	4	1	2	1	2	0	1	2	0	0	0	0
2007-12-29	-1.139168775714285	80.73792660714285	1016.6763871428573	5.109084575	168.89219285714285	0.0024553573507142858	0.10653776325	2824.4037357142856	 	0.09727797742857143	0.005183531892857143	1	5	4	1	1	1	1	1	1	1	1	0	0	0	1	0	1	1	7	1	3	1	1	8	1	5	2	1	0	0	1	1	2	1	1	1	1	1	3	1	1	2	1	8	1	1	1	1	0	1	10	1	1	1	1	0	2	4	1	12	1	1	1	1	0	2	2	1	1	1	0	1	1	0	0	0	0
2008-01-28	0.7108643311724138	82.87615286206898	1015.3474786206896	4.3798005482758615	205.54038827586209	0.00330459792275862	0.26322177896551724	4521.669210344827	 	0.0967560952413793	0.0033764367068965517	1	7	2	1	0	1	1	2	1	12	1	0	0	0	3	1	1	0	11	1	12	1	2	18	17	19	3	2	0	0	1	2	3	1	1	2	1	1	1	1	1	4	1	26	1	1	1	2	0	1	19	1	1	1	2	0	4	2	5	21	6	1	1	3	0	2	2	2	1	3	0	1	1	0	0	0	0
2008-02-27	0.4849773913793103	80.83332151724137	996.3220568965517	4.138081651724138	186.25547537931038	0.0021791187517241377	0.39925199999999994	2227.9428620689655	 	0.09793451213793103	0.014188218655172414	0	11	4	1	0	1	2	3	2	4	1	0	0	0	2	0	1	1	10	1	4	1	2	16	9	11	3	2	0	0	1	1	7	1	1	1	1	1	1	3	0	1	1	24	2	1	1	1	0	1	17	1	1	1	1	1	4	5	1	16	7	1	2	2	1	5	2	1	1	2	0	1	1	0	0	0	0
2008-03-28	6.2323788206896555	66.44679351724139	1014.5386834482758	3.76190791724138	165.32171855172416	0.0022290938848275868	0.888839173448276	11555.705896551726	 	0.09622478031034483	0.0	1	17	2	1	2	1	2	1	1	7	1	0	0	0	2	0	1	1	18	2	8	1	1	16	13	1	6	5	0	0	1	3	3	1	1	1	1	1	6	2	1	1	1	17	1	1	2	2	0	1	20	1	1	1	4	0	10	9	1	16	9	2	1	1	0	5	1	4	1	5	0	2	1	0	0	0	0
2008-04-27	11.32923834137931	57.54548	1019.045791724138	3.119933551724137	188.76425875862077	0.0023946359365517238	1.3124997365517244	18309.51199310345	 	0.09560255827586209	0.0	0	9	3	1	0	1	1	1	1	7	1	0	1	0	2	0	1	1	12	1	8	2	2	19	15	23	3	3	0	0	1	2	3	1	1	2	1	2	3	1	1	1	3	19	1	1	3	1	0	1	19	1	2	1	2	1	10	4	4	20	6	5	1	2	0	4	1	4	1	9	0	5	1	0	0	0	0
2008-05-27	14.83062382758621	58.60120913793102	1014.4633455172416	3.8045261275862066	210.3997105517241	0.009958845722758621	1.5946635762068961	20682.920793103447	 	0.0953487807586207	0.0	1	7	1	1	1	1	1	1	1	9	1	1	1	0	2	0	1	1	19	1	9	2	1	20	14	28	1	1	0	0	2	1	3	1	2	2	1	1	5	4	0	1	1	15	2	1	3	1	0	1	24	1	2	2	4	0	5	5	1	18	6	4	1	1	0	3	1	2	3	1	0	2	2	0	0	0	0
2008-06-26	16.748718724137934	70.24468575862069	1012.0093255172416	3.0358320413793107	208.05691206896552	0.006135639676551723	1.6779577482758616	12888.802582758619	 	0.09535770313793104	0.0	1	10	1	1	1	1	1	3	1	8	1	0	1	1	3	0	1	0	20	1	5	1	3	16	10	16	4	3	0	0	1	3	3	0	1	1	1	1	4	2	0	2	1	15	1	1	1	1	0	1	26	0	1	1	1	1	9	4	2	19	1	1	0	1	0	1	1	2	2	2	0	1	3	0	0	0	0
2008-07-26	17.10695668965517	73.29893475862069	1012.509585862069	2.833481589655173	175.74104610344833	0.013890697644827586	1.6569584048275863	43688.10997586207	 	0.09517770299999997	0.0	1	15	2	2	0	1	1	2	1	10	1	0	0	0	3	0	1	0	11	1	6	1	1	13	13	20	4	2	0	0	2	1	1	0	1	1	1	1	2	2	0	1	1	14	1	1	1	1	0	1	19	0	2	1	2	0	4	3	1	13	5	3	1	10	0	2	2	3	1	2	0	6	1	0	0	0	0
2008-08-25	11.104988375862069	84.08366689655172	975.1960562068966	1.028272196551724	67.47509448275862	0.008405170791724136	1.252785666896552	1868.0647620689654	 	0.09508521210344827	0.0	1	13	1	0	0	1	1	1	1	5	1	0	0	0	3	0	1	1	6	1	6	1	1	10	7	20	3	1	0	0	1	1	1	0	1	1	1	1	2	1	1	1	1	7	1	1	2	1	0	0	14	1	3	2	5	1	1	1	1	14	1	3	1	1	0	1	1	1	1	4	0	2	1	0	0	0	0
2008-09-24	9.269350210344827	87.7939505862069	1002.3207520689655	 	 	0.0034243293289655174	1.1095609710344827	1870.0030379310344	 	0.09642471734482762	0.0	1	8	1	0	1	1	1	1	3	7	1	0	0	0	2	0	1	1	10	3	9	2	2	10	5	14	1	4	0	0	1	2	3	0	1	1	2	1	3	4	1	2	1	9	1	1	2	1	0	1	5	0	1	1	1	0	4	1	2	6	1	1	1	2	0	2	1	4	1	1	0	1	1	0	0	0	0
2008-10-24	4.597761579310344	91.05199003448276	1003.7052603448276	3.115527851724138	217.9820733103448	0.005196358928275861	0.7930595758620688	2911.222975862068	 	0.09649699237931032	0.00025143675862068966	1	11	2	1	0	1	1	2	2	4	1	0	0	0	1	1	1	1	13	1	7	1	2	12	9	17	4	2	0	0	1	1	3	0	2	1	1	1	1	2	1	1	1	14	1	1	4	1	0	1	16	0	1	1	5	0	3	1	1	22	8	3	1	1	0	1	2	3	1	3	0	1	1	0	0	0	0
2008-11-23	-0.06705609868965517	96.74233010344828	1001.8505231034483	3.7636204448275863	169.88431155172415	0.004693486148275862	0.6142482296551726	2589.873903448276	 	0.09688768706896553	0.033165710568965515	2	13	1	1	1	1	1	2	1	6	1	0	0	0	3	1	1	0	16	1	2	3	1	8	3	14	4	3	0	0	1	1	2	1	1	0	1	1	7	2	1	1	1	11	1	1	1	1	0	1	11	2	1	1	1	0	5	3	2	9	3	3	1	1	0	1	1	2	1	3	0	1	1	0	0	0	0
2008-12-23	-2.697276575714286	88.81708028571428	1008.3244689285713	4.185977953571428	235.57111178571432	0.0007688492785714285	0.6825361964285716	3085.8394785714286	 	0.09648318128571429	0.006150793928571429	1	16	2	1	1	1	1	1	1	4	1	0	0	0	2	1	1	0	10	1	1	1	1	18	9	17	5	1	1	0	1	4	1	1	1	1	2	1	6	5	0	1	1	22	1	1	6	1	0	1	12	1	1	1	6	0	5	1	1	1	1	4	1	3	0	6	2	1	1	2	0	2	1	0	0	0	0
2009-01-22	-3.7452149818620684	90.90664148275862	1003.8117403448276	2.7097261586206893	100.6395058275862	0.0014128353303448273	0.5341648686206897	4387.002975862071	 	0.09673710289655171	0.006693007931034483	1	5	1	1	1	3	1	2	1	4	1	0	0	0	2	1	1	0	10	1	4	1	1	9	8	16	5	3	0	0	1	1	2	0	1	0	2	3	4	2	1	1	1	9	2	1	1	1	0	0	14	1	1	2	1	0	3	2	1	14	3	1	1	1	0	2	2	3	2	1	0	1	1	0	0	0	0
2009-02-21	-1.2601107710344832	85.54355965517243	1005.3963348275863	4.923558831034484	163.3510768275862	0.002274904128275862	0.44940692586206893	7667.29414137931	 	0.09567655275862069	0.011769636413793102	1	10	2	1	0	2	1	2	1	4	1	0	0	0	3	0	1	0	14	1	9	1	1	14	14	16	6	1	0	0	1	2	2	1	3	1	1	1	4	1	0	2	1	16	1	2	1	1	1	0	14	0	2	1	2	0	2	1	1	17	5	2	1	1	0	3	1	2	1	2	0	2	1	0	0	0	0
2009-03-23	2.695809162068966	71.72429720689657	1005.3066375862069	3.0351590206896555	177.53197634482757	0.0016795437379310343	0.866627495862069	11290.09784137931	 	0.09528489272413794	0.0022868771034482756	2	11	3	0	0	1	1	2	1	7	1	0	0	0	1	0	1	0	8	1	3	1	1	13	6	10	3	1	0	0	1	1	1	0	1	0	1	1	3	1	0	1	1	14	1	1	4	1	0	1	9	0	1	2	3	1	4	4	2	25	4	1	1	1	0	2	1	1	1	1	0	3	2	0	0	0	0
2009-04-22	11.025179075862068	54.58091768965516	1008.7263972413793	3.3236327137931037	209.8386266896552	0.001173371751724138	1.5276405103448272	14805.124458620687	 	0.09519020268965515	0.0	2	4	2	0	0	1	1	3	1	4	1	0	0	0	2	0	2	0	12	1	4	1	3	6	10	14	2	1	0	0	2	1	7	0	1	0	1	1	2	2	0	1	1	17	1	1	11	0	0	0	9	0	1	1	3	1	3	1	1	11	1	3	1	1	0	3	1	2	2	1	0	1	1	0	0	0	0
2009-05-22	13.491590489655172	72.28247017241378	1002.035885862069	7.306511927586208	236.53496051724144	0.010943491884827588	2.293148187586207	15608.7945	 	0.09513437820689657	0.0	1	8	1	0	0	0	1	2	1	7	2	0	0	0	5	0	1	0	8	1	9	1	2	11	9	19	3	3	0	0	3	1	1	0	1	1	1	1	4	2	0	1	1	14	1	1	6	1	0	1	15	0	1	3	2	1	2	3	1	11	1	1	1	1	0	2	1	2	1	1	0	3	1	0	0	0	0
2009-06-21	17.339711551724143	76.43471637931034	1007.1995262068968	3.142272393103448	200.76320393103452	0.005938696420689655	2.906264541379311	18040.935999999998	 	0.09434441424137929	0.0	1	7	1	0	0	0	1	1	0	3	1	0	0	0	1	0	1	0	3	1	2	1	1	2	4	5	2	1	0	0	1	1	1	1	1	0	1	1	1	1	0	1	1	8	1	1	4	1	0	1	4	1	1	1	1	0	1	2	1	6	2	1	1	1	0	1	1	1	0	2	0	1	1	0	0	0	0
2009-07-21	17.029499810344827	83.25615341379311	1005.3858482758621	1.1403935103448275	72.64036758620689	0.009195401760689656	2.800546068965516	15400.623034482758	 	0.09432453955172412	0.0	1	10	1	0	0	1	1	1	1	5	1	0	0	0	1	0	1	1	6	1	2	1	1	6	7	9	5	1	0	0	1	2	4	0	1	1	2	1	2	1	1	1	1	4	1	2	2	1	0	1	10	0	1	2	1	1	2	2	2	6	1	1	1	2	0	1	1	1	1	1	0	1	1	0	0	0	0
2009-08-20	14.680863982758618	84.8712956551724	1010.0196682758619	 	 	0.00555555415724138	3.4441385931034487	11583.005779310344	 	0.09454202410344825	0.0	1	7	1	0	0	1	1	1	1	9	1	0	0	0	1	0	1	0	5	1	3	1	1	6	8	11	6	3	0	0	2	1	3	0	1	0	1	1	2	1	0	1	1	10	1	1	3	1	0	1	7	2	1	3	2	1	5	1	2	13	2	2	0	1	0	3	2	1	1	3	0	1	1	0	0	0	0
2009-09-19	7.547387568965518	90.97548565517243	1000.8508393103448	 	 	0.006968389788965517	1.8713357879310346	6530.457410344828	 	0.09593668796551723	0.0	0	10	3	0	1	1	1	1	1	4	1	0	0	0	2	0	1	0	12	1	5	3	1	9	10	15	3	1	1	0	1	2	3	0	1	0	1	2	4	2	0	2	1	4	1	1	3	1	0	0	16	1	1	1	3	0	3	3	3	16	2	2	2	1	0	1	1	2	1	1	0	2	1	0	0	0	0
2009-10-19	1.9946277310344824	93.83646589655173	1010.638684137931	 	 	0.004118773666206896	14.718650637931034	3688.7982413793106	 	0.09588045489655174	0.005375958155172414	1	6	2	0	0	1	1	1	1	1	1	1	0	0	2	0	1	0	6	0	4	1	4	7	7	15	3	2	0	0	1	1	3	0	1	0	2	3	5	3	0	2	2	9	1	1	1	1	0	1	9	1	1	1	3	1	5	2	1	11	1	1	1	1	0	1	1	3	1	1	0	1	1	0	0	0	0
2009-11-18	1.6885054841379314	95.48111744827587	1005.4179824137933	 	 	0.004477968333793103	 	2488.669175862069	 	0.09591068013793105	0.00023946360344827587	0	8	1	0	1	1	1	1	1	3	1	0	0	0	1	0	1	0	12	1	6	1	2	9	17	12	3	2	0	0	1	2	1	1	2	1	1	1	1	1	0	1	1	14	1	1	3	1	0	0	9	0	2	2	3	0	5	1	1	9	1	1	0	1	0	1	2	5	1	1	0	1	2	0	0	0	0
2009-12-18	-8.284555057142859	91.56816974999997	1003.8905071428569	 	 	0.002901785356428571	 	2124.255917857143	 	0.09643683125	0.034176585642857145	0	5	1	0	0	1	1	1	0	2	1	0	0	0	1	0	0	0	9	1	3	1	1	5	2	9	1	1	0	0	1	1	1	0	2	0	1	1	1	1	0	1	0	11	1	1	1	0	0	1	11	0	1	1	1	0	2	1	2	5	2	1	1	1	0	3	0	1	1	1	0	1	0	0	0	0	0
2010-01-17	-11.329450355172414	82.11325948275864	1018.6106072413793	 	 	0.0005986590744827586	 	3583.1225999999997	 	0.09523837024137931	0.009698276310344828	0	2	1	0	0	1	1	1	1	1	0	0	0	0	1	0	0	0	2	1	1	1	1	1	1	2	2	1	0	0	0	1	1	1	1	0	0	0	1	1	0	2	0	3	0	0	1	0	0	0	1	0	1	1	1	0	1	1	0	1	1	0	0	2	0	1	0	2	1	1	0	2	0	0	0	0	0
2010-02-16	-5.444502373448275	79.13067910344827	1007.5400365517243	3.0616447896551717	191.28727893103445	0.0016522989503448275	 	5671.324324137931	 	0.09530249013793103	0.018929597137931034	1	2	1	0	0	1	1	0	0	1	1	0	0	0	1	0	0	0	4	0	4	1	2	5	2	1	1	1	0	0	0	1	2	0	0	0	2	0	2	2	0	1	1	2	1	0	1	0	0	0	1	0	0	1	1	1	1	1	0	4	1	2	0	1	0	1	0	1	1	1	0	1	0	0	0	0	0
2010-03-18	4.384272681034483	79.36180272413793	1009.2225413793104	1.4548555931034484	50.87510110344828	0.003099492177931035	 	7873.481941379313	 	0.09467227748275864	0.003987068982758621	0	2	1	0	0	1	0	1	1	2	0	0	0	0	2	0	0	0	2	0	1	1	1	1	1	6	1	1	0	0	0	1	2	1	2	1	2	1	1	1	0	1	0	1	0	0	1	0	0	1	1	0	0	1	3	0	2	1	2	5	1	1	0	2	0	1	0	1	0	1	0	1	1	0	0	0	0
2010-04-17	8.846910296551723	70.63049303448275	1003.8183344827584	 	 	0.004864008875172413	 	10128.679834482758	 	0.0943981203103448	0.0	0	3	0	0	0	1	1	0	1	5	0	0	0	0	2	0	0	0	2	0	1	1	1	1	2	1	1	2	0	0	0	0	1	0	1	0	1	0	1	1	0	1	1	1	0	1	1	0	0	0	1	0	0	2	1	0	1	1	0	1	1	0	1	1	0	1	0	1	0	1	0	1	0	0	0	0	0
2010-05-17	14.268835482758618	76.06566193103448	1001.8985717241383	 	 	0.006585248306896552	 	10576.713427586208	 	0.09376252386206899	0.0	0	3	1	0	0	0	1	1	1	1	1	0	0	0	1	0	0	0	4	1	7	1	1	7	2	4	1	2	0	0	2	2	1	0	2	0	1	1	1	2	0	0	1	1	0	0	1	0	0	0	2	0	0	1	1	0	3	1	1	2	1	1	1	1	0	1	0	1	0	3	0	1	1	0	0	0	0
2010-06-16	18.84913010344827	73.38448203448279	1006.6474296551725	 	 	0.005363985276551724	 	12223.074131034484	 	0.09292777334482757	0.0	0	1	1	0	0	0	1	0	0	2	0	0	0	0	1	0	0	0	2	0	3	1	0	3	2	3	1	0	0	0	0	1	1	0	1	0	1	0	1	0	0	0	0	2	0	0	1	0	0	0	1	0	0	2	0	0	2	1	0	3	1	0	0	1	0	0	0	1	0	1	0	0	0	0	0	0	0
2010-07-16	22.202471620689654	81.14422055172413	1006.2417462068968	 	 	0.003855363750344827	 	11360.479793103452	 	0.09205814344827584	0.0	0	1	1	0	0	1	1	0	0	1	0	0	0	0	1	0	0	0	1	0	1	0	1	1	2	3	1	1	0	0	0	1	1	0	0	0	1	0	1	1	0	1	2	1	0	0	2	0	0	0	1	0	0	0	1	1	2	0	0	1	1	2	1	1	0	1	0	1	0	0	0	1	0	0	0	0	0
2010-08-15	14.03103870689655	89.85146393103444	1004.5597037931035	 	 	0.013194442206896551	 	7889.590793103448	 	0.093175493	0.0	0	1	1	0	0	1	1	0	0	1	0	0	0	0	1	0	0	0	2	1	1	1	1	1	1	1	1	1	0	0	0	0	1	0	1	0	1	2	1	1	0	1	0	2	1	0	1	0	0	0	1	0	0	1	0	0	2	1	0	1	2	1	0	1	0	1	0	1	0	2	0	1	1	0	0	0	0
2010-09-14	8.926054189655172	88.69497541379312	1009.0731255172417	 	 	0.004662934141379311	 	5785.98993448276	 	0.09391461193103448	0.0	0	1	1	0	0	1	1	0	0	1	1	0	0	0	1	0	0	0	4	0	5	1	1	2	1	2	1	1	0	0	0	1	1	0	0	0	1	2	1	1	0	1	0	2	1	0	1	0	0	1	1	0	1	1	1	0	1	1	1	5	1	0	1	0	0	1	1	2	0	1	0	1	0	0	0	0	0
2010-10-14	3.8263509155172417	95.39458982758622	997.491542413793	 	 	0.006513409348965518	 	3179.829334482759	 	0.0949843228965517	0.00023946360344827587	0	1	1	0	0	1	1	0	1	1	0	0	0	0	1	0	0	0	1	1	3	1	1	1	1	1	2	1	0	0	1	1	1	0	1	0	0	0	1	1	0	2	1	3	1	0	2	0	0	0	1	0	0	1	1	0	1	1	0	1	1	1	0	1	1	1	0	1	0	1	0	0	0	0	0	0	0
2010-11-13	-3.12314121275862	96.90606851724137	1001.4924937931036	 	 	0.00476532533862069	 	2398.603703448276	 	0.09522361279310346	0.017037835275862067	0	1	1	0	0	0	1	0	1	2	0	0	0	0	1	0	0	0	2	1	4	1	1	5	1	1	1	1	0	0	0	1	1	0	2	0	0	0	2	2	0	1	0	1	1	0	1	1	0	0	1	0	1	2	1	1	2	1	0	2	1	0	0	1	0	1	0	1	0	2	0	2	0	0	0	0	0
